Replication Output for: Can the Government Deter Discrimination? Evidence from a Randomized Intervention in New York City
…
phone_df <- as.data.frame(phone)
names(phone_df)[2] <- "hasphonenum"
phone_df$hasphonenum <- as.numeric(as.character(phone_df$hasphonenum))

phone_df
# # A tibble: 85,981 x 2
#             entry hasphonenum
#             <chr>       <dbl>
# 1   2012-04-13_1           1
# 2  2012-04-13_10           1
# 3 2012-04-13_100           0
# 4 2012-04-13_101           1
# 5 2012-04-13_102           1
# 6 2012-04-13_103           1
# 7 2012-04-13_104           0
# 8 2012-04-13_105           1
# 9 2012-04-13_106           0
# 10 2012-04-13_107          1
# # ... with 85,971 more rows
…
